0 0 0
0.0314159 0.0314263 0.0314263
0.0628319 0.0629147 0.0629147
0.0942478 0.0945278 0.0945278
0.125664 0.126329 0.126329
0.15708 0.158384 0.158384
0.188496 0.19076 0.19076
0.219911 0.223526 0.223526
0.251327 0.256756 0.256756
0.282743 0.290527 0.290527
0.314159 0.32492 0.32492
0.345575 0.360022 0.360022
0.376991 0.395928 0.395928
0.408407 0.432739 0.432739
0.439823 0.470564 0.470564
0.471239 0.509525 0.509525
0.502655 0.549755 0.549755
0.534071 0.591398 0.591398
0.565487 0.634619 0.634619
0.596903 0.679599 0.679599
0.628319 0.726543 0.726543
0.659734 0.77568 0.77568
0.69115 0.827272 0.827272
0.722566 0.881619 0.881619
0.753982 0.939063 0.939063
0.785398 1 1
0.816814 1.06489 1.06489
0.84823 1.13428 1.13428
0.879646 1.20879 1.20879
0.911062 1.28919 1.28919
0.942478 1.37638 1.37638
0.973894 1.47146 1.47146
1.00531 1.57575 1.57575
1.03673 1.69091 1.69091
1.06814 1.81899 1.81899
1.09956 1.96261 1.96261
1.13097 2.12511 2.12511
1.16239 2.31086 2.31086
1.19381 2.52571 2.52571
1.22522 2.77761 2.77761
1.25664 3.07768 3.07768
1.28805 3.44202 3.44202
1.31947 3.89474 3.89474
1.35088 4.47374 4.47374
1.3823 5.24218 5.24218
1.41372 6.31375 6.31375
1.44513 7.91582 7.91582
1.47655 10.5789 10.5789
1.50796 15.8945 15.8945
1.53938 31.8205 31.8205
